\relax 
\@writefile{toc}{\contentsline {section}{\numberline {1}Pr\IeC {\'e}sentation de l'algorithme}{1}\protected@file@percent }
\@writefile{toc}{\contentsline {section}{\numberline {2}R\'esultats exp\'erimentaux}{1}\protected@file@percent }
