\relax 
\@writefile{toc}{\contentsline {section}{\numberline {1}Dans l'espace \textit  {RGB}}{1}\protected@file@percent }
\@writefile{lof}{\contentsline {figure}{\numberline {1}{\ignorespaces Image compress\'ee utilisant les canaux rouges et bleus\relax }}{1}\protected@file@percent }
\@writefile{lof}{\contentsline {figure}{\numberline {2}{\ignorespaces Comparaison de la compression effectu\IeC {\'e}e sur l'image originelle\relax }}{2}\protected@file@percent }
\@writefile{toc}{\contentsline {section}{\numberline {2}Dans l'espace \textit  {YCbCr}}{2}\protected@file@percent }
\@writefile{lof}{\contentsline {figure}{\numberline {3}{\ignorespaces Image compress\'ee utilisant les canaux Cb et Cr\relax }}{3}\protected@file@percent }
\@writefile{lof}{\contentsline {figure}{\numberline {4}{\ignorespaces Comparaison de la compression effectu\IeC {\'e}e sur l'image originelle\relax }}{4}\protected@file@percent }
