\relax 
\@writefile{toc}{\contentsline {section}{\numberline {1}Transformation d'espaces couleurs}{1}\protected@file@percent }
\@writefile{toc}{\contentsline {section}{\numberline {2}Application d'une transform\'ee par ondelettes}{1}\protected@file@percent }
