\relax 
\@writefile{toc}{\contentsline {section}{\numberline {1}Chargement de mod\`ele}{1}\protected@file@percent }
\@writefile{lol}{\contentsline {listing}{\numberline {1}{\ignorespaces Aper\c cu de la classe \texttt  {Model}\relax }}{1}\protected@file@percent }
\@writefile{lol}{\contentsline {listing}{\numberline {2}{\ignorespaces Fonction de chargement de mod\`ele\relax }}{2}\protected@file@percent }
\@writefile{toc}{\contentsline {section}{\numberline {2}Modifications de mod\`eles en vue d'insertion de donn\'ees cach\'ees}{2}\protected@file@percent }
\@writefile{toc}{\contentsline {subsection}{\numberline {2.1}Calcul de barycentre}{2}\protected@file@percent }
\@writefile{toc}{\contentsline {subsection}{\numberline {2.2}Conversion en coordonn\'ees sph\'eriques}{2}\protected@file@percent }
\@writefile{toc}{\contentsline {subsection}{\numberline {2.3}Conversion en coordonn\'ees carth\'esiennes}{3}\protected@file@percent }
\@writefile{toc}{\contentsline {subsection}{\numberline {2.4}Coordonn\'ees minimales et maximales d'un intervalle}{3}\protected@file@percent }
\@writefile{toc}{\contentsline {subsection}{\numberline {2.5}Normalisation dans un intervalle donn\'e}{4}\protected@file@percent }
\@writefile{toc}{\contentsline {subsection}{\numberline {2.6}D\'e-normalisation dans un intervalle donn\'e}{4}\protected@file@percent }
\@writefile{toc}{\contentsline {subsection}{\numberline {2.7}Tri pour insertion de $n$ valeurs de $k$ ensembles sur un histogramme}{5}\protected@file@percent }
\@writefile{toc}{\contentsline {subsection}{\numberline {2.8}Insertion de donn\'ees cach\'ees par tatouage du maillage}{6}\protected@file@percent }
\@writefile{toc}{\contentsline {subsection}{\numberline {2.9}Extraction de donn\'ees \`a partir d'un maillage}{6}\protected@file@percent }
\gdef\minted@oldcachelist{,
  default-pyg-prefix.pygstyle,
  default.pygstyle,
  925E54CFA44B322A2D9ADA6F045CA61A9E7AFC4F062BE41757335BEE9C88035A.pygtex,
  B13F0500F2AC96A48D0D1B9C2A7DA73A9E7AFC4F062BE41757335BEE9C88035A.pygtex,
  30670FB6CFDC510A4E5EEC41DCF4A3769E7AFC4F062BE41757335BEE9C88035A.pygtex,
  15D63C4F6F28C853AC9160EC6F03B17C9E7AFC4F062BE41757335BEE9C88035A.pygtex,
  D301A007D83B277239E24EBC901CAA329E7AFC4F062BE41757335BEE9C88035A.pygtex,
  1035782F2CAF5F1F35247CA66253D11E9E7AFC4F062BE41757335BEE9C88035A.pygtex,
  F9971DE396B5CA28E68F35B573DB7EDB9E7AFC4F062BE41757335BEE9C88035A.pygtex,
  E16A7BD2821FF9BC62978C96EC1410029E7AFC4F062BE41757335BEE9C88035A.pygtex,
  2A4C42B6949258048919F423ECB2B6D99E7AFC4F062BE41757335BEE9C88035A.pygtex,
  DF839110B7BCE6FD9272C8EB1BCB49A29E7AFC4F062BE41757335BEE9C88035A.pygtex,
  CDEBEDD6E1CB6AF3B55B4D17337DC59D9E7AFC4F062BE41757335BEE9C88035A.pygtex,
  7F55DFE4E3EF2F88B3BF67D9CDE744C69E7AFC4F062BE41757335BEE9C88035A.pygtex}
